<?xml version="1.0" encoding="UTF-8" standalone="no"?>
<svg
   xmlns:dc="http://purl.org/dc/elements/1.1/"
   xmlns:cc="http://creativecommons.org/ns#"
   xmlns:rdf="http://www.w3.org/1999/02/22-rdf-syntax-ns#"
   xmlns:svg="http://www.w3.org/2000/svg"
   xmlns="http://www.w3.org/2000/svg"
   xmlns:sodipodi="http://sodipodi.sourceforge.net/DTD/sodipodi-0.dtd"
   xmlns:inkscape="http://www.inkscape.org/namespaces/inkscape"
   viewBox="0 0 24 24"
   style="pointer-events: none; display: block;"
   id="svg2"
   version="1.1"
   inkscape:version="0.48.4 r9939"
   width="100%"
   height="100%"
   sodipodi:docname="notifications2.svg">
  <metadata
     id="metadata11">
    <rdf:RDF>
      <cc:Work
         rdf:about="">
        <dc:format>image/svg+xml</dc:format>
        <dc:type
           rdf:resource="http://purl.org/dc/dcmitype/StillImage" />
        <dc:title></dc:title>
      </cc:Work>
    </rdf:RDF>
  </metadata>
  <defs
     id="defs9" />
  <sodipodi:namedview
     pagecolor="#ffffff"
     bordercolor="#666666"
     borderopacity="1"
     objecttolerance="10"
     gridtolerance="10"
     guidetolerance="10"
     inkscape:pageopacity="0"
     inkscape:pageshadow="2"
     inkscape:window-width="1301"
     inkscape:window-height="744"
     id="namedview7"
     showgrid="false"
     inkscape:zoom="3.8231605"
     inkscape:cx="-0.74114185"
     inkscape:cy="-0.48668115"
     inkscape:window-x="65"
     inkscape:window-y="24"
     inkscape:window-maximized="1"
     inkscape:current-layer="svg2" />
  <g
     transform="matrix(0.85203723,0,0,0.85203723,2.0498599,-1.0381814)"
     id="g3851"
     style="fill:#aaaaaa;fill-opacity:1">
    <path
       inkscape:connector-curvature="0"
       id="path3853"
       d="m 11.5,22 c 1.1,0 2,-0.9 2,-2 h -4 c 0,1.1 0.9,2 2,2 z M 18,16 V 10.5 C 18,7.4 15.9,4.9 13,4.2 V 3.5 C 13,2.7 12.3,2 11.5,2 10.7,2 10,2.7 10,3.5 V 4.2 C 7.1,4.9 5,7.4 5,10.5 V 16 l -2,2 v 1 h 17 v -1 l -2,-2 z"
       style="fill:#aaaaaa;fill-opacity:1" />
  </g>
  <path
     sodipodi:nodetypes="ccccsccsccccsccsc"
     id="path3855"
     d="m 8.3848679,18.635802 3.3545791,2.559256 -3.3545791,2.439677 0.004,-1.881579 c -3.725279,-0.444508 -7.215665,-1.593739 -7.215665,-4.0027 0,-0.805949 0.986186,-1.633533 2.677289,-2.042691 l 0,0.703178 c -1.062879,0.275281 -1.563217,0.901573 -1.563217,1.340479 0,0.764415 2.206124,2.076304 6.106813,2.555005 z m 11.7494391,-2.928037 0,0.754371 c 0.89153,0.188736 1.57306,0.89346 1.57306,1.2549 0,1.046651 -2.71534,2.450495 -7.91325,2.555586 l 0,1.652466 c 5.08161,-0.122091 9.01496,-1.915386 9.01496,-4.207086 0,-0.782188 -1.38916,-1.7535 -2.67477,-2.010237 z"
     inkscape:connector-curvature="0"
     style="fill:#aaaaaa;fill-opacity:1" />
</svg>
