<?xml version="1.0" encoding="UTF-8" standalone="no"?>
<!-- Generator: Adobe Illustrator 16.0.0, SVG Export Plug-In . SVG Version: 6.00 Build 0)  -->

<svg
   xmlns:dc="http://purl.org/dc/elements/1.1/"
   xmlns:cc="http://creativecommons.org/ns#"
   xmlns:rdf="http://www.w3.org/1999/02/22-rdf-syntax-ns#"
   xmlns:svg="http://www.w3.org/2000/svg"
   xmlns="http://www.w3.org/2000/svg"
   xmlns:sodipodi="http://sodipodi.sourceforge.net/DTD/sodipodi-0.dtd"
   xmlns:inkscape="http://www.inkscape.org/namespaces/inkscape"
   version="1.1"
   id="Layer_2"
   x="0px"
   y="0px"
   width="100px"
   height="100px"
   viewBox="0 0 100 100"
   enable-background="new 0 0 100 100"
   xml:space="preserve"
   inkscape:version="0.48.4 r9939"
   sodipodi:docname="clock96.svg"><metadata
     id="metadata13"><rdf:RDF><cc:Work
         rdf:about=""><dc:format>image/svg+xml</dc:format><dc:type
           rdf:resource="http://purl.org/dc/dcmitype/StillImage" /></cc:Work></rdf:RDF></metadata><defs
     id="defs11" /><sodipodi:namedview
     pagecolor="#ffffff"
     bordercolor="#666666"
     borderopacity="1"
     objecttolerance="10"
     gridtolerance="10"
     guidetolerance="10"
     inkscape:pageopacity="0"
     inkscape:pageshadow="2"
     inkscape:window-width="753"
     inkscape:window-height="480"
     id="namedview9"
     showgrid="false"
     inkscape:zoom="2.36"
     inkscape:cx="50"
     inkscape:cy="50"
     inkscape:window-x="75"
     inkscape:window-y="34"
     inkscape:window-maximized="0"
     inkscape:current-layer="Layer_2" /><g
     id="g3"
     transform="matrix(0.81683192,0,0,0.81683192,9.1584038,9.1584038)"
     style="fill:#ebebeb;fill-opacity:1"><path
       d="M 50,1.42 C 23.213,1.42 1.42,23.213 1.42,50 1.42,76.787 23.213,98.58 50,98.58 76.787,98.58 98.58,76.787 98.58,50 98.58,23.213 76.787,1.42 50,1.42 z m 0,86.823 C 28.913,88.243 11.756,71.088 11.756,50 11.756,28.912 28.913,11.757 50,11.757 71.087,11.757 88.244,28.912 88.244,50 88.244,71.088 71.087,88.243 50,88.243 z"
       id="path5"
       inkscape:connector-curvature="0"
       style="fill:#ebebeb;fill-opacity:1" /><path
       d="M 75.318,48.5 H 53.487 V 22.25 c 0,-2.209 -1.791,-4 -4,-4 -2.209,0 -4,1.791 -4,4 V 52.5 c 0,2.209 1.791,4 4,4 h 25.831 c 2.209,0 4,-1.791 4,-4 0,-2.209 -1.791,-4 -4,-4 z"
       id="path7"
       inkscape:connector-curvature="0"
       style="fill:#ebebeb;fill-opacity:1" /></g></svg>